CRESTEM-R ANSWERS
…
4.2 Piping

4.2.1 Group and summarise

Can you spot the six errors in this code:

starwars %>%  #1 missing pipe %>%
  group_by(species) %>% #2 species shouldn't be in speech marks
  summarise(avg_weight = mean(mass, na.rm=TRUE))
  #3 this is an assignment, so no need for double =
  #4 lower case TRUE in na.rm needs to be upper
  #5 rm.na should be na.rm
  #6 trailing pipe command %>% needs to be removed

# A tibble: 38 x 2
   species   avg_weight
   <chr>          <dbl>
 1 Aleena          15  
 2 Besalisk       102  
 3 Cerean          82  
 4 Chagrian       NaN  
 5 Clawdite        55  
 6 Droid           69.8
 7 Dug             40  
 8 Ewok            20  
 9 Geonosian       80  
10 Gungan          74  
# ... with 28 more rows

Using the schools table, find the maximum FSM value for each LA

schools %>%
  group_by(LA) %>%
  summarise(max_FSM = max(FSM, na.rm=TRUE))

# A tibble: 184 x 2
   LA                           max_FSM
   <chr>                          <dbl>
 1 Barking and Dagenham           0.376
 2 Barnet                         0.553
 3 Barnsley                       0.58 
 4 Bath and North East Somerset   0.549
 5 Bedford                        0.463
 6 Bexley                         0.629
 7 BFPO Overseas Establishments   0    
 8 Birmingham                     0.76 
 9 Blackburn with Darwen          0.632
10 Blackpool                      0.622
# ... with 174 more rows
…
Using the schools table, find the mean FSM for each LA, also grouping by whether the school is Open

schools %>%
  group_by(LA, Open) %>%
  summarise(mean_FSM = mean(FSM, na.rm=TRUE))

# A tibble: 437 x 3
# Groups:   LA [184]
   LA                           Open   mean_FSM
   <chr>                        <chr>     <dbl>
 1 Barking and Dagenham         Closed  0.0150 
 2 Barking and Dagenham         Open    0.155  
 3 Barnet                       Closed  0.00905
 4 Barnet                       Open    0.102  
 5 Barnsley                     Closed  0.0218 
 6 Barnsley                     Open    0.191  
 7 Bath and North East Somerset Closed  0.0385 
 8 Bath and North East Somerset Open    0.113  
 9 Bedford                      Closed  0.0187 
10 Bedford                      Open    0.116  
# ... with 427 more rows
…
# A tibble: 1 x 1
  average
    <dbl>
1    491.

Display (Select) only the ID, LA, Gender, OfstedRating from a school

schools %>%
  select(ID, LA, Gender, OfstedRating)

# A tibble: 48,354 x 4
       ID LA             Gender OfstedRating
    <dbl> <chr>          <chr>  <chr>       
 1 100000 City of London Mixed  Outstanding 
 2 100001 City of London Girls  <NA>        
 3 100002 City of London Mixed  <NA>        
 4 100003 City of London Boys   <NA>        
 5 100004 Camden         Mixed  <NA>        
 6 100005 Camden         Mixed  Outstanding 
 7 100006 Camden         Mixed  Good        
 8 100007 Camden         Mixed  Good        
 9 100008 Camden         Mixed  Good        
10 100009 Camden         Mixed  Good        
# ... with 48,344 more rows
…
Filter all the schools that got Outstanding as an OfstedRating, display the ID, Name, FSM and TypeOfEstablishment, and arrange them by descending FSM.

schools %>%
  filter(OfstedRating == "Outstanding") %>%
  select(ID, Name, FSM, TypeOfEstablishment) %>%
  arrange(desc(FSM))

# A tibble: 4,586 x 4
       ID Name                                          FSM TypeOfEstablishment 
    <dbl> <chr>                                       <dbl> <chr>               
 1 135010 Sutton Tuition and Reintegration Service    1     Pupil referral unit 
 2 139541 Courtyard AP Academy                        0.929 Academy alternative~
 3 100643 Turney Primary and Secondary Special School 0.875 Foundation special ~
 4 131598 Ian Mikardo School                          0.811 Community special s~
 5 107589 William Henry Smith School                  0.778 Non-maintained spec~
 6 102957 The Limes College                           0.759 Pupil referral unit 
 7 115450 Wells Park School                           0.736 Community special s~
 8 135558 Hawkswood Primary PRU                       0.692 Pupil referral unit 
 9 141582 St Silas Church of England Primary School   0.692 Academy converter   
10 100469 Samuel Rhodes MLD School                    0.677 Community special s~
# ... with 4,576 more rows
…
Count (summarise) the number of schools, grouped as both Open and Closed under each OfstedRating, make the Open results appear at the top of the table. Output the result to an object and explore it in the Environment area.

schools %>%
  group_by(OfstedRating, Open) %>%
  summarise(n=n()) %>%
  ungroup() %>%
  arrange(desc(Open))

# A tibble: 21 x 3
   OfstedRating         Open                            n
   <chr>                <chr>                       <int>
 1 <NA>                 Proposed to open               48
 2 Good                 Open, but proposed to close     4
 3 Outstanding          Open, but proposed to close     1
 4 Requires improvement Open, but proposed to close    16
 5 Serious Weaknesses   Open, but proposed to close    16
 6 Special Measures     Open, but proposed to close    21
 7 <NA>                 Open, but proposed to close     2
 8 Good                 Open                        13915
 9 Inadequate           Open                          107
10 Outstanding          Open                         3511
# ... with 11 more rows

[Extension] What’s the average FSM rating for each Gender of school in each Region? Arrange the results so the most impoverished area appears first.

schools %>%
  group_by(Region, Gender) %>%
  filter(Open == "Open") %>%
  summarise(mean_FSM = mean(FSM, na.rm=TRUE)) %>%
  ungroup() %>%
  arrange(desc(mean_FSM))

# A tibble: 48 x 3
   Region                   Gender mean_FSM
   <chr>                    <chr>     <dbl>
 1 North East               Mixed     0.215
 2 North West               Mixed     0.173
 3 London                   Mixed     0.162
 4 West Midlands            Mixed     0.161
 5 Yorkshire and the Humber Mixed     0.159
 6 West Midlands            Boys      0.139
 7 East Midlands            Mixed     0.135
 8 South West               Boys      0.134
 9 North East               Boys      0.124
10 South West               Mixed     0.122
# ... with 38 more rows
…
# A tibble: 1 x 1
  average
    <dbl>
1    491.

Display (Select) only the ID, LA, Gender, OfstedRating from a school

schools %>%
  select(ID, LA, Gender, OfstedRating)

# A tibble: 48,354 x 4
       ID LA             Gender OfstedRating
    <dbl> <chr>          <chr>  <chr>       
 1 100000 City of London Mixed  Outstanding 
 2 100001 City of London Girls  <NA>        
 3 100002 City of London Mixed  <NA>        
 4 100003 City of London Boys   <NA>        
 5 100004 Camden         Mixed  <NA>        
 6 100005 Camden         Mixed  Outstanding 
 7 100006 Camden         Mixed  Good        
 8 100007 Camden         Mixed  Good        
 9 100008 Camden         Mixed  Good        
10 100009 Camden         Mixed  Good        
# ... with 48,344 more rows
…
Filter all the schools that got Outstanding as an OfstedRating, display the ID, Name, FSM and TypeOfEstablishment.

schools %>%
  filter(OfstedRating == "Outstanding") %>%
  select(ID, Name, FSM, TypeOfEstablishment)

# A tibble: 4,586 x 4
       ID Name                                              FSM TypeOfEstablish~
    <dbl> <chr>                                           <dbl> <chr>           
 1 100000 Sir John Cass's Foundation Primary School       0.112 Voluntary aided~
 2 100005 Thomas Coram Centre                             0.338 Local authority~
 3 100020 Primrose Hill School                            0.238 Community school
 4 100022 Richard Cobden Primary School                   0.357 Community school
 5 100023 Torriano Primary School                         0.298 Community school
 6 100025 Gospel Oak Primary School                       0.266 Community school
 7 100027 Eleanor Palmer Primary School                   0.085 Community school
 8 100028 Christ Church Primary School, Hampstead         0.041 Voluntary aided~
 9 100033 Holy Trinity and Saint Silas CofE Primary Scho~ 0.181 Voluntary aided~
10 100034 Kentish Town Church of England Primary School   0.278 Voluntary aided~
# ... with 4,576 more rows
…
Count (summarise) the number of schools, grouped as both Open and Closed under each OfstedRating, make the Open results appear at the top of the table. Output the result to an object and explore it in the Environment area.

schools %>%
  group_by(OfstedRating, Open) %>%
  summarise(n=n()) %>%
  ungroup() %>%
  arrange(desc(Open))

`summarise()` has grouped output by 'OfstedRating'. You can override using the
`.groups` argument.

# A tibble: 21 x 3
   OfstedRating         Open                            n
   <chr>                <chr>                       <int>
 1 <NA>                 Proposed to open               48
 2 Good                 Open, but proposed to close     4
 3 Outstanding          Open, but proposed to close     1
 4 Requires improvement Open, but proposed to close    16
 5 Serious Weaknesses   Open, but proposed to close    16
 6 Special Measures     Open, but proposed to close    21
 7 <NA>                 Open, but proposed to close     2
 8 Good                 Open                        13915
 9 Inadequate           Open                          107
10 Outstanding          Open                         3511
# ... with 11 more rows

[Extension] What’s the average FSM rating for each Gender of school in each Region? arrange the results so the most impoverished area appears first.

schools %>%
  group_by(Region, Gender) %>%
  filter(Open == "Open") %>%
  summarise(mean_FSM = mean(FSM, na.rm=TRUE)) %>%
  ungroup() %>%
  arrange(desc(mean_FSM))

`summarise()` has grouped output by 'Region'. You can override using the
`.groups` argument.

# A tibble: 48 x 3
   Region                   Gender mean_FSM
   <chr>                    <chr>     <dbl>
 1 North East               Mixed     0.215
 2 North West               Mixed     0.173
 3 London                   Mixed     0.162
 4 West Midlands            Mixed     0.161
 5 Yorkshire and the Humber Mixed     0.159
 6 West Midlands            Boys      0.139
 7 East Midlands            Mixed     0.135
 8 South West               Boys      0.134
 9 North East               Boys      0.124
10 South West               Mixed     0.122
# ... with 38 more rows
…
# we can also work out the percentage for all the responses to this question
TIMSS %>% 
  group_by(CNTRY) %>%
  mutate(total_schools = n()) %>%
  group_by(CNTRY, BCBG14I) %>%
  summarise(do_well = 100*(n() / unique(total_schools)))

# A tibble: 54 x 3
# Groups:   CNTRY [11]
   CNTRY BCBG14I   do_well
   <chr> <chr>       <dbl>
 1 ENG   High       27.2  
 2 ENG   Low         2.21 
 3 ENG   Medium     21.3  
 4 ENG   Very high  15.4  
 5 ENG   <NA>       33.8  
 6 FIN   High       43.5  
 7 FIN   Low         0.649
 8 FIN   Medium     51.9  
 9 FIN   Very high   3.25 
10 FIN   <NA>        0.649
# ... with 44 more rows
…
