CRESTEM-R
…
When you load the tables you might find that there is a warning:

Warning

Warning in read_fun(path = enc2native(normalizePath(path)), sheet_i = sheet, : Expecting numeric in I27750 / R27750C9: got ‘SUPP’

This is telling you that a column in the dataframe is nearly all numeric, except for some rows which are storing the character string SUPP. This is the DfE’s way of suppressing data for schools and subjects that are smaller than 5 students. We’ll deal with these when we come to cleaning our data.

You can check that the tables have loaded correctly by typing the object names and running them (control|command and Enter)

results

# A tibble: 677,784 x 11
       ID Total_students Qualification       Grade_structure Code  Subject_group
    <dbl>          <dbl> <chr>               <chr>           <chr> <chr>        
 1 100001            107 Free standing Math~ A,B,C,D,E,U,No~ RB1C  Additional M~
 2 100001            107 Free standing Math~ A,B,C,D,E,U,No~ RB1C  Additional M~
 3 100001            107 Free standing Math~ A,B,C,D,E,U,No~ RB1C  Additional M~
 4 100001            107 Free standing Math~ A,B,C,D,E,U,No~ RB1C  Additional M~
 5 100001            107 Free standing Math~ A,B,C,D,E,U,No~ RB1C  Additional M~
 6 100001            107 Free standing Math~ A,B,C,D,E,U,No~ RB1C  Additional M~
 7 100001            107 Free standing Math~ A,B,C,D,E,U,No~ RB1C  Additional M~
 8 100001            107 GCE AS level        A,B,C,D,E,U,No~ FKK   Greek        
 9 100001            107 GCSE (9-1) Full Co~ 9,8,7,6,5,4,3,~ JA2   Art & Design 
10 100001            107 GCSE (9-1) Full Co~ 9,8,7,6,5,4,3,~ JA2   Art & Design 
# ... with 677,774 more rows, and 5 more variables: Description <chr>,
#   Grade <chr>, Entries <dbl>, School <chr>, School_type <chr>
…
how piping works

Note

The pipe command we are using %>% is from the maggrittr package which is installed alongside the tidyverse. Recently R introduced another pipe |> which offers very similar functionality. The examples below use the %>% pipe.

Let’s look at a piped example by using the results table. This table contains a field called Total_students which we should be able to be used to work out the number of students in the school entering exams in 2018/19. But the data is very messy. For a school’s results Total_students, i.e. total number of students in a cohort, appears for each subject a school entered students for, but not just that, it appears for each individual grade grouping!?

results %>% 
  filter(ID == 100055) %>% 
  select(ID, Total_students, Description, Grade, Entries)

# A tibble: 165 x 5
       ID Total_students Description  Grade                Entries
    <dbl>          <dbl> <chr>        <chr>                  <dbl>
 1 100055            115 Arabic       Total number entered       1
 2 100055            115 Art & Design Total number entered      19
 3 100055            115 Art & Design 8                          2
 4 100055            115 Art & Design 7                          2
 5 100055            115 Art & Design 5                          4
 6 100055            115 Art & Design 4                          4
 7 100055            115 Art & Design 3                          5
 8 100055            115 Art & Design 2                          1
 9 100055            115 Art & Design 1                          1
10 100055            115 Biology      Total number entered      22
# ... with 155 more rows

It’s no good summing the total number of students in the results table together if the students are counted more than once for each school, e.g. school ID 100055 has 165 entries forTotal_students. What we want to do is to get one Total_students for each school, we can do this by grouping the results for each school together, then finding the unique value for Total_students. As each result row for the same school has the same Total_students value, unique(Total_students) will return a single value for each individual school.

results %>% 
  group_by(ID) %>%
  summarise(Total = unique(Total_students)) 

# A tibble: 4,648 x 2
       ID Total
    <dbl> <dbl>
 1 100001   107
 2 100003   200
 3 100049   199
 4 100050   175
 5 100051   154
 6 100052   200
 7 100053   137
 8 100054   107
 9 100055   115
10 100056   111
# ... with 4,638 more rows
…
gets the results dataframe and pipes it into the next instruction, whatever results from all the piping will be stored <- into the sub_entries object

groups the results by individual school (ID) and by subject taken in that school (Description).

creates a new column called Total and stores the maximum value from the Entries column, i.e. the total number entered for each subject. As the piped data is currently grouped, this will work out the total number entered for every school and subject combination.

as the pipe currently stores the total number of students entered for each subject in each school, we now group on Description only to allow us to look at individual subjects across all schools

creates a new column called Subject_Total and stores the sum of all the Total in each Description grouping, i.e. the number of students taking each subject for the whole of England

In the example below, we have assigned the output of the tidyverse pipe calculation into a new object called sub_entries. If you run the code you will be able to access at the results in the Environment panel rather than just the console.

sub_entries # output the new object to the console

# A tibble: 130 x 2
   Description                    Subject_Total
   <chr>                                  <dbl>
 1 Accounting/Finance                         1
 2 Additional Mathematics                     2
 3 Additional Mathematics FSMQ             7560
 4 Ancient History                          817
 5 Animal Care (Non-Agricultural)          1285
 6 Applied Engineering                     2846
 7 Applied ICT                            35960
 8 Arabic                                  2333
 9 Art & Design                           62137
10 Art & Design (3d Studies)               3904
# ... with 120 more rows

We can also use the n() command to count the number of schools that meet certain criteria. n() returns the number of rows in a table or group.

schools %>% 
  group_by(TypeOfEstablishment, Open) %>%
  summarise(total = n())

`summarise()` has grouped output by 'TypeOfEstablishment'. You can override
using the `.groups` argument.

# A tibble: 84 x 3
# Groups:   TypeOfEstablishment [37]
   TypeOfEstablishment                       Open                        total
   <chr>                                     <chr>                       <int>
 1 Academy 16-19 converter                   Open                           29
 2 Academy 16 to 19 sponsor led              Open                            1
 3 Academy alternative provision converter   Closed                          1
 4 Academy alternative provision converter   Open                           72
 5 Academy alternative provision sponsor led Closed                          5
 6 Academy alternative provision sponsor led Open                           26
 7 Academy alternative provision sponsor led Proposed to open                1
 8 Academy converter                         Closed                        172
 9 Academy converter                         Open                         5751
10 Academy converter                         Open, but proposed to close     3
# ... with 74 more rows
…
select let’s us pick which columns we want to display.

filter takes one or more criteria, allowing us to only display the rows that meet our requirements.

mutate creates a column based on a set value, or one or more other columns. It’s similar to summarise, but it doesn’t get rid of all the other non-grouped columns or reduce the number of rows in a grouping.

Let’s take another example. Imagine we only want to know details about the schools where they had students entering GCSE Chinese.

results %>% 
  filter(Description == "Chinese") %>%
  filter(Grade == "Total number entered") %>%
  select(ID, School, Total_students, Description, Entries)

# A tibble: 458 x 5
       ID School                          Total_students Description Entries
    <dbl> <chr>                                    <dbl> <chr>         <dbl>
 1 100001 City of London School for Girls            107 Chinese          33
 2 137181 The UCL Academy                            171 Chinese          61
 3 100053 Acland Burghley School                     137 Chinese           1
 4 100054 The Camden School for Girls                107 Chinese           1
 5 100065 University College School                  132 Chinese           5
 6 100076 South Hampstead High School                103 Chinese           1
 7 138449 Harris Academy Greenwich                   187 Chinese           1
 8 145315 The Halley Academy                         188 Chinese           1
 9 141309 Stationers' Crown Woods Academy            254 Chinese           1
10 100192 The John Roan School                       221 Chinese           1
# ... with 448 more rows
…
Note

You can see in the last example that we had two filters, one after another. This acts like an AND, i.e. the code filters for Description == "Chinese" AND Grade == "Total number entered". If you want to AND your filters you can also put them together, as shown below:

results %>% 
  filter(Description == "Chinese",
         Grade == "Total number entered") %>%
  select(ID, School, Total_students, Description, Entries)

# A tibble: 458 x 5
       ID School                          Total_students Description Entries
    <dbl> <chr>                                    <dbl> <chr>         <dbl>
 1 100001 City of London School for Girls            107 Chinese          33
 2 137181 The UCL Academy                            171 Chinese          61
 3 100053 Acland Burghley School                     137 Chinese           1
 4 100054 The Camden School for Girls                107 Chinese           1
 5 100065 University College School                  132 Chinese           5
 6 100076 South Hampstead High School                103 Chinese           1
 7 138449 Harris Academy Greenwich                   187 Chinese           1
 8 145315 The Halley Academy                         188 Chinese           1
 9 141309 Stationers' Crown Woods Academy            254 Chinese           1
10 100192 The John Roan School                       221 Chinese           1
# ... with 448 more rows

You might want to OR your filter, for example finding all the results that are either "Chinese" OR "French". You can do this using the bar | character:

results %>% 
  filter(Description == "Chinese" | # the bar character finds 
         Description == "French",
         Grade == "Total number entered") %>%
  select(ID, School, Total_students, Description, Entries)

# A tibble: 3,760 x 5
       ID School                          Total_students Description Entries
    <dbl> <chr>                                    <dbl> <chr>         <dbl>
 1 100001 City of London School for Girls            107 Chinese          33
 2 100001 City of London School for Girls            107 French           45
 3 137181 The UCL Academy                            171 Chinese          61
 4 137181 The UCL Academy                            171 French            5
 5 100050 Parliament Hill School                     175 French           63
 6 100051 Regent High School                         154 French           62
 7 100052 Hampstead School                           200 French           54
 8 100053 Acland Burghley School                     137 Chinese           1
 9 100053 Acland Burghley School                     137 French           26
10 100054 The Camden School for Girls                107 Chinese           1
# ... with 3,750 more rows
…
# store details on all the open schools in Open_schools
Open_schools <- schools %>% filter(Open == "Open")

# use Open_schools to find stats only about schools that are open
Open_schools %>%
  group_by(LA) %>%
  mutate(All_schools = n()) %>%
  ungroup() %>%
  group_by(LA, EstablishmentGroup, All_schools) %>%
  summarise(total = n()) %>%
  # the round() function allows you to specify the number of significant digits
  mutate(per = round(total/All_schools, 2))

# A tibble: 1,049 x 5
# Groups:   LA, EstablishmentGroup [1,049]
   LA                   EstablishmentGroup               All_schools total   per
   <chr>                <chr>                                  <int> <int> <dbl>
 1 Barking and Dagenham Academies                                 65    11  0.17
 2 Barking and Dagenham Colleges                                  65     1  0.02
 3 Barking and Dagenham Free Schools                              65     7  0.11
 4 Barking and Dagenham Independent schools                       65     2  0.03
 5 Barking and Dagenham Local authority maintained scho~          65    41  0.63
 6 Barking and Dagenham Special schools                           65     3  0.05
 7 Barnet               Academies                                173    30  0.17
 8 Barnet               Colleges                                 173     2  0.01
 9 Barnet               Free Schools                             173    10  0.06
10 Barnet               Independent schools                      173    36  0.21
# ... with 1,039 more rows
…
